(a | b | c)
(-a | -b)
(-a | -c)
(-b | -c)
(d | e | f)
(-d | -e)
(-d | -f)
(-e | -f)
(g | h | i)
(-g | -h)
(-g | -i)
(-h | -i)
(a | d | g)
(-a | -d)
(-a | -g)
(-d | -g)
(b | e | h)
(-b | -e)
(-b | -h)
(-e | -h)
(c | f | i)
(-c | -f)
(-c | -i)
(-f | -i)
(-a | -e)
(-a | -i)
(-e | -i)
(-c | -e)
(-c | -g)
(-e | -g)
(-b | -d)
(-b | -f)
(-d | -h)
(-f | -h)